{"failedCount":0,"prefixedPath":"src\/test\/java\/resources\/Firsttest.feature","packageQualifiedName":"src.test.java.resources.Firsttest","loopIndex":-1,"relativePath":"src\/test\/java\/resources\/Firsttest.feature","scenarioResults":[{"sectionIndex":0,"stepResults":[{"result":{"nanos":99620700,"millis":99.6207,"status":"passed"},"step":{"line":3,"prefix":"Given","index":0,"text":"url 'https:\/\/reqres.in\/api\/users?page=20'"}},{"result":{"nanos":897161900,"millis":897.1619,"status":"passed"},"step":{"line":4,"prefix":"When","index":1,"text":"method Get"},"stepLog":"15:48:24.429 request:\n1 > GET https:\/\/reqres.in\/api\/users?page=20\n1 > Host: reqres.in\n1 > Connection: Keep-Alive\n1 > User-Agent: Apache-HttpClient\/4.5.13 (Java\/1.8.0_121)\n1 > Accept-Encoding: gzip,deflate\n\n\n15:48:24.728 response time in milliseconds: 297\n1 < 200\n1 < Date: Sat, 10 Jun 2023 14:48:23 GMT\n1 < Content-Type: application\/json; charset=utf-8\n1 < Transfer-Encoding: chunked\n1 < Connection: keep-alive\n1 < X-Powered-By: Express\n1 < Access-Control-Allow-Origin: *\n1 < Etag: W\/\"c6-M+6mEN2fr9mpC0xjDxsV\/qXnHec\"\n1 < Via: 1.1 vegur\n1 < Cache-Control: max-age=14400\n1 < CF-Cache-Status: MISS\n1 < Report-To: {\"endpoints\":[{\"url\":\"https:\\\/\\\/a.nel.cloudflare.com\\\/report\\\/v3?s=Pmt1sbSq5CRRjUNWfN%2F7n7ZF3rImzMsLyIqWvTmPnBElhbl39hw1jcqQTP84sjBIMbxu5tqLdcTs7%2F1prry5y74SxSYIU4WF03mA4jceYoIU9gReOQUIl0Qt4Q%3D%3D\"}],\"group\":\"cf-nel\",\"max_age\":604800}\n1 < NEL: {\"success_fraction\":0,\"report_to\":\"cf-nel\",\"max_age\":604800}\n1 < Vary: Accept-Encoding\n1 < Server: cloudflare\n1 < CF-RAY: 7d526a387ea575cc-LHR\n{\"page\":20,\"per_page\":6,\"total\":12,\"total_pages\":2,\"data\":[],\"support\":{\"url\":\"https:\/\/reqres.in\/#support-heading\",\"text\":\"To keep ReqRes free, contributions towards server costs are appreciated!\"}}\n\n"},{"result":{"nanos":13200,"millis":0.0132,"status":"passed"},"step":{"line":5,"prefix":"Then","index":2,"text":"status 200"}}],"executorName":"main","line":2,"name":"Test sample Get api","description":"","durationMillis":996.7958,"startTime":1686408503745,"failed":false,"refId":"[1:2]","endTime":1686408504755,"exampleIndex":-1}],"callDepth":0,"name":"sample api Tests","description":"","resultDate":"2023-06-10 03:48:24 PM","durationMillis":996.7958,"passedCount":1}